%YAML 1.1
%TAG !u! tag:unity3d.com,2011:
--- !u!1 &2726609291188741125
GameObject:
  m_ObjectHideFlags: 0
  m_CorrespondingSourceObject: {fileID: 0}
  m_PrefabInstance: {fileID: 0}
  m_PrefabAsset: {fileID: 0}
  serializedVersion: 6
  m_Component:
  - component: {fileID: 2726609291188741120}
  - component: {fileID: 2726609291188741127}
  - component: {fileID: 1246729533}
  m_Layer: 0
  m_Name: SoundManager
  m_TagString: Untagged
  m_Icon: {fileID: 0}
  m_NavMeshLayer: 0
  m_StaticEditorFlags: 0
  m_IsActive: 1
--- !u!4 &2726609291188741120
Transform:
  m_ObjectHideFlags: 0
  m_CorrespondingSourceObject: {fileID: 0}
  m_PrefabInstance: {fileID: 0}
  m_PrefabAsset: {fileID: 0}
  m_GameObject: {fileID: 2726609291188741125}
  m_LocalRotation: {x: 0, y: 0, z: 0, w: 1}
  m_LocalPosition: {x: 0, y: 0, z: 0}
  m_LocalScale: {x: 1, y: 1, z: 1}
  m_Children: []
  m_Father: {fileID: 0}
  m_RootOrder: 0
  m_LocalEulerAnglesHint: {x: 0, y: 0, z: 0}
--- !u!114 &2726609291188741127
MonoBehaviour:
  m_ObjectHideFlags: 0
  m_CorrespondingSourceObject: {fileID: 0}
  m_PrefabInstance: {fileID: 0}
  m_PrefabAsset: {fileID: 0}
  m_GameObject: {fileID: 2726609291188741125}
  m_Enabled: 1
  m_EditorHideFlags: 0
  m_Script: {fileID: 11500000, guid: 92f42595234530144b3fa2d562f09163, type: 3}
  m_Name: 
  m_EditorClassIdentifier: 
  mixer: {fileID: -7519487415941410559, guid: cdb4c0acb44569b4cbe36ed7ced5b21e, type: 2}
  windSound: {fileID: 8300000, guid: ba9a30fc922250c4587bc32c7a7a73cd, type: 3}
  windSpeedSound: {fileID: 8300000, guid: 43c90f63636bd29499847361eb606690, type: 3}
  transformationSound: {fileID: 8300000, guid: 7164d13f7207c8141912380d8564ec77, type: 3}
  bendSound: {fileID: 8300000, guid: be5ea8cfd76c2f14da44e362bc599bb7, type: 3}
  dieSound: {fileID: 8300000, guid: c06ac8c9c87e4e4448ab9c683ad509d7, type: 3}
  Hurts:
  - {fileID: 8300000, guid: 859d8c9c2dbc4774784229ae2842a620, type: 3}
  - {fileID: 8300000, guid: 9572c1992761af14b974cd592f9952c8, type: 3}
  - {fileID: 8300000, guid: 47fceeb0c2781974eb416657846b3b68, type: 3}
  - {fileID: 8300000, guid: 3e719788c4cb2e944b78363cacdb15bd, type: 3}
  BowShoots:
  - {fileID: 8300000, guid: 28e576187d0d1d840934b94650a0f64c, type: 3}
  - {fileID: 8300000, guid: 0b83065683b845c47ba449a8724ce8a2, type: 3}
  - {fileID: 8300000, guid: 054a4c388113f2442b9b86d56ac42146, type: 3}
  - {fileID: 8300000, guid: e9e36b19d6d79b947a8112ab9fb4bbdf, type: 3}
  wingsSounds:
  - {fileID: 8300000, guid: fb4a575ee54cb7043b2ae03205c5ae23, type: 3}
  - {fileID: 8300000, guid: d791d6ed6a1c7614caa0833ba9ea729a, type: 3}
  - {fileID: 8300000, guid: b805913ba1eb3564091db41a1ac15762, type: 3}
  - {fileID: 8300000, guid: 3c5cbf4eb04397948875725d1d2e2e34, type: 3}
  stepsSounds:
  - {fileID: 8300000, guid: afd87232470b8be479148b7d45dcdcc4, type: 3}
  - {fileID: 8300000, guid: a617ce70c7f49e740af920e1b06a0dee, type: 3}
  - {fileID: 8300000, guid: 115a48ddba0af384dbf9d77dbf9c2857, type: 3}
  - {fileID: 8300000, guid: b0d1be9e25e6d544bbb53914fda6f355, type: 3}
  - {fileID: 8300000, guid: 519c26ce9b1b9f84392e721f3675233e, type: 3}
  - {fileID: 8300000, guid: c016d4d5bf33ba14b80bb3f310d67643, type: 3}
  - {fileID: 8300000, guid: 9584ba8770672e04cab886e4f187054a, type: 3}
  - {fileID: 8300000, guid: 018759768566ffa4e9bb6ef24888323d, type: 3}
  audSrcNova: {fileID: 0}
  audSrcHurt: {fileID: 0}
  audSrcWindSpeed: {fileID: 0}
  audSrcBowShoot: {fileID: 0}
  audSrcWings: {fileID: 0}
  audSrcTransformation: {fileID: 0}
  audSrcBend: {fileID: 0}
  audSrcDie: {fileID: 0}
  audSrcSteps: {fileID: 0}
--- !u!114 &1246729533
MonoBehaviour:
  m_ObjectHideFlags: 0
  m_CorrespondingSourceObject: {fileID: 0}
  m_PrefabInstance: {fileID: 0}
  m_PrefabAsset: {fileID: 0}
  m_GameObject: {fileID: 2726609291188741125}
  m_Enabled: 1
  m_EditorHideFlags: 0
  m_Script: {fileID: 11500000, guid: 384168b55c556294399f5780829beffd, type: 3}
  m_Name: 
  m_EditorClassIdentifier: 
  volumeMaster: 0
  volumeMusic: 0
  volumeSFX: 0
  activeLowPass: 1
  lowPassMinMax: {x: 250, y: 22000}
  speedLowPass: 10
  activePitch: 0
  pitchMinMax: {x: 0.5, y: 1}
  speedPitch: 10
  mixerMaster: {fileID: 24300002, guid: cdb4c0acb44569b4cbe36ed7ced5b21e, type: 2}
  mixerMusic: {fileID: -499488037577414535, guid: cdb4c0acb44569b4cbe36ed7ced5b21e,
    type: 2}
  mixerSFX: {fileID: -7519487415941410559, guid: cdb4c0acb44569b4cbe36ed7ced5b21e,
    type: 2}
  mixer: {fileID: 0}
